h5/rand_generator.vcd
$date
Sun May 22 12:20:50 2022
$end
$version
Riviera-PRO Version 2020.04.130.7729
$end
$timescale
1 ps
$end

$scope module rand_generator_tb $end

$scope module rand_num_generator $end
$var wire 1 ! clk $end
$var wire 1 " load $end
$var reg 3 # q [3:1] $end
$upscope $end

$upscope $end

$enddefinitions $end
$dumpvars
0!
1"
bx #
$end
#10000
1!
b110 #
b100 #
#15000
0"
#20000
0!
#30000
1!
b1 #
#40000
0!
#50000
1!
b11 #
#60000
0!
#70000
1!
b111 #
#80000
0!
#90000
1!
b110 #
#100000
0!
#110000
1!
b101 #
#120000
0!
#130000
1!
b10 #
#140000
0!
#150000
1!
b100 #
#160000
0!
#170000
1!
b1 #
#180000
0!
#190000
1!
b11 #
#200000
0!
#205000
1"
#210000
1!
b110 #
b100 #
#215000
0"
#220000
0!
#230000
1!
b1 #
#240000
0!
#250000
1!
b11 #
#260000
0!
#270000
1!
b111 #
#280000
0!
#290000
1!
b110 #
#300000
0!
#310000
1!
b101 #
#320000
0!
#330000
1!
b10 #
#340000
0!
#350000
1!
b100 #
#360000
0!
#370000
1!
b1 #
#380000
0!
#390000
1!
b11 #
#400000
0!
#410000
1!
b111 #
